<?xml version="1.0" encoding="UTF-8" standalone="no"?>
<svg
   xmlns:dc="http://purl.org/dc/elements/1.1/"
   xmlns:cc="http://creativecommons.org/ns#"
   xmlns:rdf="http://www.w3.org/1999/02/22-rdf-syntax-ns#"
   xmlns:svg="http://www.w3.org/2000/svg"
   xmlns="http://www.w3.org/2000/svg"
   xmlns:sodipodi="http://sodipodi.sourceforge.net/DTD/sodipodi-0.dtd"
   xmlns:inkscape="http://www.inkscape.org/namespaces/inkscape"
   height="101.80827"
   viewBox="0 0 68 67.872182"
   width="102"
   version="1.1"
   id="svg3715"
   sodipodi:docname="material_devices.svg"
   inkscape:version="0.92.2 (5c3e80d, 2017-08-06)"
   style="fill:#4bb3fd">
  <metadata
     id="metadata3721">
    <rdf:RDF>
      <cc:Work
         rdf:about="">
        <dc:format>image/svg+xml</dc:format>
        <dc:type
           rdf:resource="http://purl.org/dc/dcmitype/StillImage" />
        <dc:title></dc:title>
      </cc:Work>
    </rdf:RDF>
  </metadata>
  <defs
     id="defs3719" />
  <sodipodi:namedview
     pagecolor="#ffffff"
     bordercolor="#666666"
     borderopacity="1"
     objecttolerance="10"
     gridtolerance="10"
     guidetolerance="10"
     inkscape:pageopacity="0"
     inkscape:pageshadow="2"
     inkscape:window-width="1920"
     inkscape:window-height="1057"
     id="namedview3717"
     showgrid="false"
     inkscape:zoom="6.1666666"
     inkscape:cx="-7.7577915"
     inkscape:cy="46.757391"
     inkscape:window-x="1912"
     inkscape:window-y="6"
     inkscape:window-maximized="1"
     inkscape:current-layer="svg3715"
     fit-margin-top="0"
     fit-margin-left="0"
     fit-margin-right="0"
     fit-margin-bottom="0" />
  <path
     d="M 9.2497225,34.546016 H 33.249723 v 24 H 9.2497225 Z"
     id="path3711"
     inkscape:connector-curvature="0"
     style="clip-rule:evenodd;fill:none" />
  <g
     id="g816"
     transform="matrix(1.6720682,0,0,1.6720682,15.466167,12.14856)">
    <ellipse
       ry="20.295877"
       rx="20.334099"
       style="fill:#00487c;fill-opacity:1;stroke-width:0.79269171"
       cy="13.030289"
       cx="11.084376"
       id="path3723" />
    <path
       id="path4"
       d="M 2.6257127,6.8391794 H 20.625713 v -2 H 2.6257127 c -1.1,0 -2.00000018,0.9 -2.00000018,2 V 17.839179 H -1.3742875 v 3 H 12.625713 v -3 H 2.6257127 Z m 19.0000003,2 h -6 c -0.55,0 -1,0.45 -1,1 v 9.9999996 c 0,0.55 0.45,1 1,1 h 6 c 0.55,0 1,-0.45 1,-1 V 9.8391794 c 0,-0.55 -0.45,-1 -1,-1 z m -1,8.9999996 h -4 v -7 h 4 z"
       inkscape:connector-curvature="0"
       style="stroke-width:1" />
  </g>
</svg>
