<?xml version="1.0" encoding="UTF-8" standalone="no"?>
<svg
   xmlns:dc="http://purl.org/dc/elements/1.1/"
   xmlns:cc="http://creativecommons.org/ns#"
   xmlns:rdf="http://www.w3.org/1999/02/22-rdf-syntax-ns#"
   xmlns:svg="http://www.w3.org/2000/svg"
   xmlns="http://www.w3.org/2000/svg"
   xmlns:sodipodi="http://sodipodi.sourceforge.net/DTD/sodipodi-0.dtd"
   xmlns:inkscape="http://www.inkscape.org/namespaces/inkscape"
   height="100.81016"
   viewBox="0 0 67.333333 67.206772"
   width="101"
   version="1.1"
   id="svg3715"
   sodipodi:docname="material_code.svg"
   inkscape:version="0.92.2 (5c3e80d, 2017-08-06)"
   style="fill:#4bb3fd">
  <metadata
     id="metadata3721">
    <rdf:RDF>
      <cc:Work
         rdf:about="">
        <dc:format>image/svg+xml</dc:format>
        <dc:type
           rdf:resource="http://purl.org/dc/dcmitype/StillImage" />
        <dc:title></dc:title>
      </cc:Work>
    </rdf:RDF>
  </metadata>
  <defs
     id="defs3719" />
  <sodipodi:namedview
     pagecolor="#ffffff"
     bordercolor="#666666"
     borderopacity="1"
     objecttolerance="10"
     gridtolerance="10"
     guidetolerance="10"
     inkscape:pageopacity="0"
     inkscape:pageshadow="2"
     inkscape:window-width="1920"
     inkscape:window-height="1057"
     id="namedview3717"
     showgrid="false"
     inkscape:zoom="6.1666666"
     inkscape:cx="32.291685"
     inkscape:cy="54.118731"
     inkscape:window-x="1912"
     inkscape:window-y="6"
     inkscape:window-maximized="1"
     inkscape:current-layer="g1377"
     fit-margin-top="0"
     fit-margin-left="0"
     fit-margin-right="0"
     fit-margin-bottom="0"
     showguides="true"
     inkscape:snap-bbox="false"
     inkscape:snap-to-guides="true"
     inkscape:guide-bbox="true" />
  <path
     d="M 9.2497228,33.880603 H 33.249723 v 24 H 9.2497228 Z"
     id="path3711"
     inkscape:connector-curvature="0"
     style="clip-rule:evenodd;fill:none" />
  <g
     id="g1377"
     transform="matrix(1.6556754,0,0,1.6556754,15.314538,12.029457)">
    <ellipse
       ry="20.295877"
       rx="20.334099"
       style="fill:#00487c;fill-opacity:1;stroke-width:0.79269171"
       cy="13.030289"
       cx="11.084376"
       id="path3723" />
    <path
       id="path4"
       d="m 9.3756842,18.606009 -4.5999998,-4.6 4.5999998,-4.6000008 -1.3999998,-1.3999996 -6.0000001,6.0000004 6.0000001,6 z m 5.2000018,0 4.599999,-4.6 -4.599999,-4.6000008 1.4,-1.3999996 5.999999,6.0000004 -5.999999,6 z"
       inkscape:connector-curvature="0"
       style="stroke-width:1" />
  </g>
</svg>
